{
    "track": "scala",
    "exercise": "two-fer",
    "id": "c7e86dfcae0a431995117a8af5925af8",
    "url": "https://exercism.io/tracks/scala/exercises/two-fer/solutions/c7e86dfcae0a431995117a8af5925af8",
    "handle": "heptalophos",
    "is_requester": true,
    "auto_approve": false
}