{
    "track":"scala",
    "exercise":"palindrome-products",
    "id":"733143afbb3c431cbb0fe8544798ef40",
    "url":"https://exercism.io/tracks/scala/exercises/palindrome-products/solutions/733143afbb3c431cbb0fe8544798ef40",
    "handle":"heptalophos",
    "is_requester":true,
    "auto_approve":false
}